{
    "editor.suggestSelection": "first",
    "vsintellicode.modify.editor.suggestSelection": "automaticallyOverrodeDefaultValue",
    "workbench.iconTheme": "material-icon-theme",
    "workbench.colorTheme": "Braver's Solarized Dark (themed workbench)",
    "files.autoSave": "afterDelay",
    "files.watcherExclude": {
        "**/.bloop": true,
        "**/.metals": true,
        "**/.ammonite": true
    },
    "metals.javaHome": "/home/micheal/.asdf/installs/java/adoptopenjdk-15.0.1+9",
    "editor.fontFamily": "'Fira Code'",
    "editor.inlineHints.fontFamily": "'Fira Code'",
    "markdown.preview.fontFamily": "'Fira Code'",
    "editor.codeLensFontFamily": "'Fira Code'",
    "debug.console.fontFamily": "'Fira Code'",
    "editor.fontLigatures": true,
    "editor.renderWhitespace": "trailing",
    "editor.mouseWheelZoom": true,
    "explorer.confirmDelete": false,
    "todohighlight.isCaseSensitive": false,
    "todohighlight.keywords": [
        "TODO",
        "FIXME",
        "XXX",
        "HACK"
    ],
    "metals.showInferredType": true,
    "metals.superMethodLensesEnabled": true,
    "workbench.sideBar.location": "right",
    "window.menuBarVisibility": "toggle",
    "editor.tabSize": 2,
    "java.configuration.runtimes": [
        {
            "path": "/home/micheal/.asdf/installs/java/adoptopenjdk-15.0.1+9",
            "name": "JavaSE-15"
        }
    ],
    "editor.minimap.enabled": false,
    "java.home": "/home/micheal/.asdf/installs/java/adoptopenjdk-15.0.1+9",
    "files.exclude": {
        "**/.classpath": true,
        "**/.project": true,
        "**/.settings": true,
        "**/.factorypath": true
    },
    "terminal.integrated.tabs.enabled": true,
    "terminal.integrated.fontFamily": "'Fira Code'",
    "update.mode": "none",
    "idris.idrisPath": "/home/linuxbrew/.linuxbrew/bin/idris2",
    "redhat.telemetry.enabled": false,
    "eslint.alwaysShowStatus": true,
    "eslint.format.enable": true,
    "eslint.packageManager": "yarn",
    "prolog.format.tabSize": 2,
    "prolog.linter.enableMsgInOutput": true,
    "prolog.linter.run": "onSave",
    "javascript.updateImportsOnFileMove.enabled": "always",
    "[typescript]": {
        "editor.defaultFormatter": "dbaeumer.vscode-eslint"
    },
    "[javascript]": {
        "editor.defaultFormatter": "dbaeumer.vscode-eslint"
    },
    "editor.defaultFormatter": "dbaeumer.vscode-eslint",
    "typescript.updateImportsOnFileMove.enabled": "always",
    "gitlens.currentLine.enabled": false,
    "gitlens.hovers.currentLine.over": "line",
    "gitlens.codeLens.enabled": false
}